{

	"default" : "DOCKER",
	"configs" : ["DOCKER","TEST"],
	"cacheTime_ms" : 60000,
	"description" : "Database Meta",
	"DOCKER" : {
		"url" : "jdbc:db2://localhost:50000/DOCKER",     
		"user" : "db2inst1",
		"password" : "admin",
		"vendor" : "Db2",	
		"queries" : ["tables", "objects", "applications"],
		"tables" : {
			"cacheTime_ms" : 12000,
			"groups" : "tabschema",
			"labels": ["schema", "table"],
			"query": "select tabschema, tabname from syscat.tables where tabschema not like 'SYS%' with ur"	
		}
	}
}